/* XPM */
static char * left_inactive_xpm[] = {
"3 20 3 1",
" 	c None",
".	c #999999",
"+	c #EFEFEF",
".++",
".++",
".++",
".++",
".++",
".++",
".++",
".++",
".++",
".++",
".++",
".++",
".++",
".++",
".++",
".++",
".++",
".++",
".++",
".++"};
